-- Merging decision tree log ---
manifest
ADDED from /home/devel-73/Balaji/AndroidStudioProjects/AchaDiscount/app/src/main/AndroidManifest.xml:2:1-336:12
	package
		ADDED from /home/devel-73/Balaji/AndroidStudioProjects/AchaDiscount/app/src/main/AndroidManifest.xml:3:5-34
		INJECTED from /home/devel-73/Balaji/AndroidStudioProjects/AchaDiscount/app/src/main/AndroidManifest.xml
		INJECTED from /home/devel-73/Balaji/AndroidStudioProjects/AchaDiscount/app/src/main/AndroidManifest.xml
	android:versionName
		ADDED from /home/devel-73/Balaji/AndroidStudioProjects/AchaDiscount/app/src/main/AndroidManifest.xml:5:5-30
		INJECTED from /home/devel-73/Balaji/AndroidStudioProjects/AchaDiscount/app/src/main/AndroidManifest.xml
		INJECTED from /home/devel-73/Balaji/AndroidStudioProjects/AchaDiscount/app/src/main/AndroidManifest.xml
	android:versionCode
		ADDED from /home/devel-73/Balaji/AndroidStudioProjects/AchaDiscount/app/src/main/AndroidManifest.xml:4:5-28
		INJECTED from /home/devel-73/Balaji/AndroidStudioProjects/AchaDiscount/app/src/main/AndroidManifest.xml
		INJECTED from /home/devel-73/Balaji/AndroidStudioProjects/AchaDiscount/app/src/main/AndroidManifest.xml
	xmlns:android
		ADDED from /home/devel-73/Balaji/AndroidStudioProjects/AchaDiscount/app/src/main/AndroidManifest.xml:2:11-69
uses-sdk
ADDED from /home/devel-73/Balaji/AndroidStudioProjects/AchaDiscount/app/src/main/AndroidManifest.xml:7:5-9:41
MERGED from [com.android.support:multidex:1.0.1] /home/devel-73/.android/build-cache/4491e6480f3fa01804bb9d4a610d3ea1852c1e6a/output/AndroidManifest.xml:18:5-42
MERGED from [com.google.android.gms:play-services:8.4.0] /home/devel-73/.android/build-cache/85eb0588ee11dbe21ccf0eeacb5aca6ca6f591f3/output/AndroidManifest.xml:18:5-42
MERGED from [com.google.android.gms:play-services-ads:8.4.0] /home/devel-73/.android/build-cache/670b697b16672128bca733a22fd9141100846369/output/AndroidManifest.xml:23:5-42
MERGED from [com.google.android.gms:play-services-analytics:8.4.0] /home/devel-73/.android/build-cache/d6e2ad1b474667c04ce7131a0f2539219d7843dc/output/AndroidManifest.xml:18:5-42
MERGED from [com.google.android.gms:play-services-appindexing:8.4.0] /home/devel-73/.android/build-cache/b596c38e62290440abd478577d6d3b4b2c6b1093/output/AndroidManifest.xml:18:5-42
MERGED from [com.google.android.gms:play-services-appinvite:8.4.0] /home/devel-73/.android/build-cache/fc10d04b149cc5aa636cb252fb9ed536a3cf0a62/output/AndroidManifest.xml:18:5-42
MERGED from [com.google.android.gms:play-services-appstate:8.4.0] /home/devel-73/.android/build-cache/b801739f48669a5d72b58de2ed5d63d85ba8316a/output/AndroidManifest.xml:18:5-42
MERGED from [com.google.android.gms:play-services-auth:8.4.0] /home/devel-73/.android/build-cache/2842006d9e83ba859d8dab122f16ec50166ffad9/output/AndroidManifest.xml:18:5-43
MERGED from [com.google.android.gms:play-services-cast:8.4.0] /home/devel-73/.android/build-cache/86d3b472e4527f0308f0c37e927b23350f637b89/output/AndroidManifest.xml:18:5-42
MERGED from [com.android.support:mediarouter-v7:23.0.0] /home/devel-73/.android/build-cache/2a5a82a901703032eb4a2ab047184effa4492fb7/output/AndroidManifest.xml:20:5-43
MERGED from [com.google.android.gms:play-services-fitness:8.4.0] /home/devel-73/.android/build-cache/0bcde8495ddbd2ac98aed02dcc07af9264174f86/output/AndroidManifest.xml:18:5-42
MERGED from [com.google.android.gms:play-services-games:8.4.0] /home/devel-73/.android/build-cache/2691aa104f5b53683982ee4fd719e5f967ba10c5/output/AndroidManifest.xml:18:5-42
MERGED from [com.google.android.gms:play-services-drive:8.4.0] /home/devel-73/.android/build-cache/0470497f129c461d3e8071f71e26314bcee4b519/output/AndroidManifest.xml:18:5-42
MERGED from [com.google.android.gms:play-services-gcm:8.4.0] /home/devel-73/.android/build-cache/07a5a3d70ee7a5a458dce7bd0158a64ae937a0b8/output/AndroidManifest.xml:18:5-42
MERGED from [com.google.android.gms:play-services-location:8.4.0] /home/devel-73/.android/build-cache/5ab6a71f120655f7f220f85b68ac5ca7d3e5d8a5/output/AndroidManifest.xml:18:5-42
MERGED from [com.google.android.gms:play-services-measurement:8.4.0] /home/devel-73/.android/build-cache/542188354804323e224af616642d37ea4afe2424/output/AndroidManifest.xml:18:5-42
MERGED from [com.google.android.gms:play-services-nearby:8.4.0] /home/devel-73/.android/build-cache/dce443ae758aaff94c97d2f65914082d3e7822a2/output/AndroidManifest.xml:18:5-42
MERGED from [com.google.android.gms:play-services-panorama:8.4.0] /home/devel-73/.android/build-cache/0c1a2e17221c4457a82a1d5a0f9edecb8872cba4/output/AndroidManifest.xml:18:5-42
MERGED from [com.google.android.gms:play-services-plus:8.4.0] /home/devel-73/.android/build-cache/ca73676c37410919d063ee9eaafa58850d64dcfb/output/AndroidManifest.xml:18:5-42
MERGED from [com.google.android.gms:play-services-safetynet:8.4.0] /home/devel-73/.android/build-cache/b02c6f5ac33a655f39f9ff569b3528f1a972ef0d/output/AndroidManifest.xml:18:5-42
MERGED from [com.google.android.gms:play-services-vision:8.4.0] /home/devel-73/.android/build-cache/d4d8a8f6d8d4c27d94e2bf267cdc81b47d22e525/output/AndroidManifest.xml:4:5-42
MERGED from [com.google.android.gms:play-services-wallet:8.4.0] /home/devel-73/.android/build-cache/34c130bc6d14e73288781c13f121a21ffeb808b0/output/AndroidManifest.xml:19:5-42
MERGED from [com.google.android.gms:play-services-identity:8.4.0] /home/devel-73/.android/build-cache/e9df5dfb6369c1acaa13ec76e429e91cf50fb4db/output/AndroidManifest.xml:18:5-42
MERGED from [com.google.android.gms:play-services-maps:8.4.0] /home/devel-73/.android/build-cache/d058c9cbe178de8088b4b6b62ae38998c045212c/output/AndroidManifest.xml:26:5-42
MERGED from [com.google.android.gms:play-services-wearable:8.4.0] /home/devel-73/.android/build-cache/b6b814246bb897abc23cf457aafdad4b10b92dc4/output/AndroidManifest.xml:18:5-42
MERGED from [com.google.android.gms:play-services-base:8.4.0] /home/devel-73/.android/build-cache/8e121037ce3f89976589ff0b22a2f244afe666ba/output/AndroidManifest.xml:18:5-42
MERGED from [com.google.android.gms:play-services-basement:8.4.0] /home/devel-73/.android/build-cache/1bbef4dc9002d9c3bcc33f0690ba0abc30cb371a/output/AndroidManifest.xml:18:5-42
MERGED from [com.android.volley:volley:1.0.0] /home/devel-73/.android/build-cache/233d509b2a18ba00f3b2bc82d0489774a487fed8/output/AndroidManifest.xml:7:5-43
MERGED from [com.facebook.android:facebook-android-sdk:4.5.0] /home/devel-73/.android/build-cache/f7945fea88af26c03379dce53ffd793390e6b420/output/AndroidManifest.xml:24:5-26:41
MERGED from [com.jjoe64:graphview:4.2.1] /home/devel-73/.android/build-cache/e89f5b9ce70d068b1df0b9508487e35bbe2bec43/output/AndroidManifest.xml:7:5-9:41
MERGED from [com.wang.avi:library:1.0.3] /home/devel-73/.android/build-cache/5ffd6d3a34a5f7f1294547e96a2b33247b7c6e10/output/AndroidManifest.xml:7:5-9:41
MERGED from [com.android.support:recyclerview-v7:23.4.0] /home/devel-73/.android/build-cache/19c742a60a6cf39e5633dd2dacfae71cd5178c52/output/AndroidManifest.xml:20:5-43
MERGED from [info.androidramp:loading-gear:1.0.4] /home/devel-73/.android/build-cache/73363745e1ab4eb7bc67db17ebe4130f514f72bf/output/AndroidManifest.xml:7:5-9:41
MERGED from [com.android.support:appcompat-v7:23.4.0] /home/devel-73/.android/build-cache/5919819eb2f89e1e2edb9ae359d40dfe12205992/output/AndroidManifest.xml:21:5-23:78
MERGED from [com.android.support:animated-vector-drawable:23.4.0] /home/devel-73/.android/build-cache/4722c04fe7fec9d278d71bfde0f50d360c0a8b68/output/AndroidManifest.xml:5:5-44
MERGED from [com.android.support:support-vector-drawable:23.4.0] /home/devel-73/.android/build-cache/dc0409030788e36eb7542832a230e04e37fffa76/output/AndroidManifest.xml:5:5-43
MERGED from [com.android.support:support-v4:23.4.0] /home/devel-73/.android/build-cache/585b83894941535f07636e9fa92306c10365ad4a/output/AndroidManifest.xml:20:5-43
	tools:overrideLibrary
		ADDED from [com.android.support:appcompat-v7:23.4.0] /home/devel-73/.android/build-cache/5919819eb2f89e1e2edb9ae359d40dfe12205992/output/AndroidManifest.xml:23:9-75
	android:targetSdkVersion
		ADDED from /home/devel-73/Balaji/AndroidStudioProjects/AchaDiscount/app/src/main/AndroidManifest.xml:9:9-38
		INJECTED from /home/devel-73/Balaji/AndroidStudioProjects/AchaDiscount/app/src/main/AndroidManifest.xml
		INJECTED from /home/devel-73/Balaji/AndroidStudioProjects/AchaDiscount/app/src/main/AndroidManifest.xml
	android:minSdkVersion
		ADDED from /home/devel-73/Balaji/AndroidStudioProjects/AchaDiscount/app/src/main/AndroidManifest.xml:8:9-35
		INJECTED from /home/devel-73/Balaji/AndroidStudioProjects/AchaDiscount/app/src/main/AndroidManifest.xml
		INJECTED from /home/devel-73/Balaji/AndroidStudioProjects/AchaDiscount/app/src/main/AndroidManifest.xml
uses-permission#android.permission.INTERNET
ADDED from /home/devel-73/Balaji/AndroidStudioProjects/AchaDiscount/app/src/main/AndroidManifest.xml:11:5-67
MERGED from [com.google.android.gms:play-services-ads:8.4.0] /home/devel-73/.android/build-cache/670b697b16672128bca733a22fd9141100846369/output/AndroidManifest.xml:20:5-66
MERGED from [com.google.android.gms:play-services-analytics:8.4.0] /home/devel-73/.android/build-cache/d6e2ad1b474667c04ce7131a0f2539219d7843dc/output/AndroidManifest.xml:21:5-67
MERGED from [com.google.android.gms:play-services-appinvite:8.4.0] /home/devel-73/.android/build-cache/fc10d04b149cc5aa636cb252fb9ed536a3cf0a62/output/AndroidManifest.xml:19:5-67
MERGED from [com.google.android.gms:play-services-gcm:8.4.0] /home/devel-73/.android/build-cache/07a5a3d70ee7a5a458dce7bd0158a64ae937a0b8/output/AndroidManifest.xml:22:5-67
MERGED from [com.google.android.gms:play-services-measurement:8.4.0] /home/devel-73/.android/build-cache/542188354804323e224af616642d37ea4afe2424/output/AndroidManifest.xml:21:5-67
MERGED from [com.google.android.gms:play-services-maps:8.4.0] /home/devel-73/.android/build-cache/d058c9cbe178de8088b4b6b62ae38998c045212c/output/AndroidManifest.xml:21:5-66
	android:name
		ADDED from /home/devel-73/Balaji/AndroidStudioProjects/AchaDiscount/app/src/main/AndroidManifest.xml:11:22-64
uses-permission#android.permission.ACCESS_NETWORK_STATE
ADDED from /home/devel-73/Balaji/AndroidStudioProjects/AchaDiscount/app/src/main/AndroidManifest.xml:12:5-79
MERGED from [com.google.android.gms:play-services-ads:8.4.0] /home/devel-73/.android/build-cache/670b697b16672128bca733a22fd9141100846369/output/AndroidManifest.xml:21:5-78
MERGED from [com.google.android.gms:play-services-analytics:8.4.0] /home/devel-73/.android/build-cache/d6e2ad1b474667c04ce7131a0f2539219d7843dc/output/AndroidManifest.xml:22:5-79
MERGED from [com.google.android.gms:play-services-measurement:8.4.0] /home/devel-73/.android/build-cache/542188354804323e224af616642d37ea4afe2424/output/AndroidManifest.xml:22:5-79
MERGED from [com.google.android.gms:play-services-nearby:8.4.0] /home/devel-73/.android/build-cache/dce443ae758aaff94c97d2f65914082d3e7822a2/output/AndroidManifest.xml:19:5-79
MERGED from [com.google.android.gms:play-services-maps:8.4.0] /home/devel-73/.android/build-cache/d058c9cbe178de8088b4b6b62ae38998c045212c/output/AndroidManifest.xml:20:5-78
	android:name
		ADDED from /home/devel-73/Balaji/AndroidStudioProjects/AchaDiscount/app/src/main/AndroidManifest.xml:12:22-76
uses-permission#android.permission.ACCESS_FINE_LOCATION
ADDED from /home/devel-73/Balaji/AndroidStudioProjects/AchaDiscount/app/src/main/AndroidManifest.xml:13:5-79
	android:name
		ADDED from /home/devel-73/Balaji/AndroidStudioProjects/AchaDiscount/app/src/main/AndroidManifest.xml:13:22-76
uses-permission#android.permission.ACCESS_COARSE_LOCATION
ADDED from /home/devel-73/Balaji/AndroidStudioProjects/AchaDiscount/app/src/main/AndroidManifest.xml:14:5-81
	android:name
		ADDED from /home/devel-73/Balaji/AndroidStudioProjects/AchaDiscount/app/src/main/AndroidManifest.xml:14:22-78
uses-permission#android.permission.ACCESS_WIFI_STATE
ADDED from /home/devel-73/Balaji/AndroidStudioProjects/AchaDiscount/app/src/main/AndroidManifest.xml:15:5-76
	android:name
		ADDED from /home/devel-73/Balaji/AndroidStudioProjects/AchaDiscount/app/src/main/AndroidManifest.xml:15:22-73
uses-permission#android.permission.WAKE_LOCK
ADDED from /home/devel-73/Balaji/AndroidStudioProjects/AchaDiscount/app/src/main/AndroidManifest.xml:16:5-68
MERGED from [com.google.android.gms:play-services-measurement:8.4.0] /home/devel-73/.android/build-cache/542188354804323e224af616642d37ea4afe2424/output/AndroidManifest.xml:24:5-67
	android:name
		ADDED from /home/devel-73/Balaji/AndroidStudioProjects/AchaDiscount/app/src/main/AndroidManifest.xml:16:22-65
uses-permission#android.permission.VIBRATE
ADDED from /home/devel-73/Balaji/AndroidStudioProjects/AchaDiscount/app/src/main/AndroidManifest.xml:17:5-66
	android:name
		ADDED from /home/devel-73/Balaji/AndroidStudioProjects/AchaDiscount/app/src/main/AndroidManifest.xml:17:22-63
uses-permission#android.permission.GET_TASKS
ADDED from /home/devel-73/Balaji/AndroidStudioProjects/AchaDiscount/app/src/main/AndroidManifest.xml:18:5-68
	android:name
		ADDED from /home/devel-73/Balaji/AndroidStudioProjects/AchaDiscount/app/src/main/AndroidManifest.xml:18:22-65
uses-permission#android.permission.GET_ACCOUNTS
ADDED from /home/devel-73/Balaji/AndroidStudioProjects/AchaDiscount/app/src/main/AndroidManifest.xml:19:5-71
	android:name
		ADDED from /home/devel-73/Balaji/AndroidStudioProjects/AchaDiscount/app/src/main/AndroidManifest.xml:19:22-68
uses-permission#android.permission.WRITE_EXTERNAL_STORAGE
ADDED from /home/devel-73/Balaji/AndroidStudioProjects/AchaDiscount/app/src/main/AndroidManifest.xml:20:5-81
	android:name
		ADDED from /home/devel-73/Balaji/AndroidStudioProjects/AchaDiscount/app/src/main/AndroidManifest.xml:20:22-78
uses-permission#android.permission.READ_EXTERNAL_STORAGE
ADDED from /home/devel-73/Balaji/AndroidStudioProjects/AchaDiscount/app/src/main/AndroidManifest.xml:21:5-80
	android:name
		ADDED from /home/devel-73/Balaji/AndroidStudioProjects/AchaDiscount/app/src/main/AndroidManifest.xml:21:22-77
uses-permission#android.permission.USE_CREDENTIALS
ADDED from /home/devel-73/Balaji/AndroidStudioProjects/AchaDiscount/app/src/main/AndroidManifest.xml:22:5-74
	android:name
		ADDED from /home/devel-73/Balaji/AndroidStudioProjects/AchaDiscount/app/src/main/AndroidManifest.xml:22:22-71
uses-permission#com.google.android.providers.gsf.permission.READ_GSERVICES
ADDED from /home/devel-73/Balaji/AndroidStudioProjects/AchaDiscount/app/src/main/AndroidManifest.xml:23:5-98
	android:name
		ADDED from /home/devel-73/Balaji/AndroidStudioProjects/AchaDiscount/app/src/main/AndroidManifest.xml:23:22-95
permission#your.package.name.permission.MAPS_RECEIVE
ADDED from /home/devel-73/Balaji/AndroidStudioProjects/AchaDiscount/app/src/main/AndroidManifest.xml:25:5-27:47
	android:protectionLevel
		ADDED from /home/devel-73/Balaji/AndroidStudioProjects/AchaDiscount/app/src/main/AndroidManifest.xml:27:9-44
	android:name
		ADDED from /home/devel-73/Balaji/AndroidStudioProjects/AchaDiscount/app/src/main/AndroidManifest.xml:26:9-65
uses-permission#android.permission.READ_PHONE_STATE
ADDED from /home/devel-73/Balaji/AndroidStudioProjects/AchaDiscount/app/src/main/AndroidManifest.xml:29:5-75
	android:name
		ADDED from /home/devel-73/Balaji/AndroidStudioProjects/AchaDiscount/app/src/main/AndroidManifest.xml:29:22-72
application
ADDED from /home/devel-73/Balaji/AndroidStudioProjects/AchaDiscount/app/src/main/AndroidManifest.xml:31:5-329:19
MERGED from [com.google.android.gms:play-services:8.4.0] /home/devel-73/.android/build-cache/85eb0588ee11dbe21ccf0eeacb5aca6ca6f591f3/output/AndroidManifest.xml:19:5-20
MERGED from [com.google.android.gms:play-services-ads:8.4.0] /home/devel-73/.android/build-cache/670b697b16672128bca733a22fd9141100846369/output/AndroidManifest.xml:24:5-32:19
MERGED from [com.google.android.gms:play-services-analytics:8.4.0] /home/devel-73/.android/build-cache/d6e2ad1b474667c04ce7131a0f2539219d7843dc/output/AndroidManifest.xml:24:5-20
MERGED from [com.google.android.gms:play-services-appindexing:8.4.0] /home/devel-73/.android/build-cache/b596c38e62290440abd478577d6d3b4b2c6b1093/output/AndroidManifest.xml:19:5-20
MERGED from [com.google.android.gms:play-services-appinvite:8.4.0] /home/devel-73/.android/build-cache/fc10d04b149cc5aa636cb252fb9ed536a3cf0a62/output/AndroidManifest.xml:20:5-30:19
MERGED from [com.google.android.gms:play-services-appstate:8.4.0] /home/devel-73/.android/build-cache/b801739f48669a5d72b58de2ed5d63d85ba8316a/output/AndroidManifest.xml:19:5-20
MERGED from [com.google.android.gms:play-services-auth:8.4.0] /home/devel-73/.android/build-cache/2842006d9e83ba859d8dab122f16ec50166ffad9/output/AndroidManifest.xml:20:5-32:19
MERGED from [com.google.android.gms:play-services-cast:8.4.0] /home/devel-73/.android/build-cache/86d3b472e4527f0308f0c37e927b23350f637b89/output/AndroidManifest.xml:19:5-20
MERGED from [com.android.support:mediarouter-v7:23.0.0] /home/devel-73/.android/build-cache/2a5a82a901703032eb4a2ab047184effa4492fb7/output/AndroidManifest.xml:22:5-20
MERGED from [com.google.android.gms:play-services-fitness:8.4.0] /home/devel-73/.android/build-cache/0bcde8495ddbd2ac98aed02dcc07af9264174f86/output/AndroidManifest.xml:19:5-20
MERGED from [com.google.android.gms:play-services-games:8.4.0] /home/devel-73/.android/build-cache/2691aa104f5b53683982ee4fd719e5f967ba10c5/output/AndroidManifest.xml:19:5-20
MERGED from [com.google.android.gms:play-services-drive:8.4.0] /home/devel-73/.android/build-cache/0470497f129c461d3e8071f71e26314bcee4b519/output/AndroidManifest.xml:19:5-20
MERGED from [com.google.android.gms:play-services-gcm:8.4.0] /home/devel-73/.android/build-cache/07a5a3d70ee7a5a458dce7bd0158a64ae937a0b8/output/AndroidManifest.xml:24:5-20
MERGED from [com.google.android.gms:play-services-location:8.4.0] /home/devel-73/.android/build-cache/5ab6a71f120655f7f220f85b68ac5ca7d3e5d8a5/output/AndroidManifest.xml:19:5-20
MERGED from [com.google.android.gms:play-services-measurement:8.4.0] /home/devel-73/.android/build-cache/542188354804323e224af616642d37ea4afe2424/output/AndroidManifest.xml:26:5-46:19
MERGED from [com.google.android.gms:play-services-nearby:8.4.0] /home/devel-73/.android/build-cache/dce443ae758aaff94c97d2f65914082d3e7822a2/output/AndroidManifest.xml:20:5-20
MERGED from [com.google.android.gms:play-services-panorama:8.4.0] /home/devel-73/.android/build-cache/0c1a2e17221c4457a82a1d5a0f9edecb8872cba4/output/AndroidManifest.xml:19:5-20
MERGED from [com.google.android.gms:play-services-plus:8.4.0] /home/devel-73/.android/build-cache/ca73676c37410919d063ee9eaafa58850d64dcfb/output/AndroidManifest.xml:19:5-20
MERGED from [com.google.android.gms:play-services-safetynet:8.4.0] /home/devel-73/.android/build-cache/b02c6f5ac33a655f39f9ff569b3528f1a972ef0d/output/AndroidManifest.xml:19:5-20
MERGED from [com.google.android.gms:play-services-vision:8.4.0] /home/devel-73/.android/build-cache/d4d8a8f6d8d4c27d94e2bf267cdc81b47d22e525/output/AndroidManifest.xml:5:5-20
MERGED from [com.google.android.gms:play-services-identity:8.4.0] /home/devel-73/.android/build-cache/e9df5dfb6369c1acaa13ec76e429e91cf50fb4db/output/AndroidManifest.xml:19:5-20
MERGED from [com.google.android.gms:play-services-maps:8.4.0] /home/devel-73/.android/build-cache/d058c9cbe178de8088b4b6b62ae38998c045212c/output/AndroidManifest.xml:27:5-20
MERGED from [com.google.android.gms:play-services-wearable:8.4.0] /home/devel-73/.android/build-cache/b6b814246bb897abc23cf457aafdad4b10b92dc4/output/AndroidManifest.xml:19:5-20
MERGED from [com.google.android.gms:play-services-basement:8.4.0] /home/devel-73/.android/build-cache/1bbef4dc9002d9c3bcc33f0690ba0abc30cb371a/output/AndroidManifest.xml:20:5-24:19
MERGED from [com.android.volley:volley:1.0.0] /home/devel-73/.android/build-cache/233d509b2a18ba00f3b2bc82d0489774a487fed8/output/AndroidManifest.xml:9:5-20
MERGED from [com.facebook.android:facebook-android-sdk:4.5.0] /home/devel-73/.android/build-cache/f7945fea88af26c03379dce53ffd793390e6b420/output/AndroidManifest.xml:28:5-20
MERGED from [com.jjoe64:graphview:4.2.1] /home/devel-73/.android/build-cache/e89f5b9ce70d068b1df0b9508487e35bbe2bec43/output/AndroidManifest.xml:11:5-12:19
MERGED from [info.androidramp:loading-gear:1.0.4] /home/devel-73/.android/build-cache/73363745e1ab4eb7bc67db17ebe4130f514f72bf/output/AndroidManifest.xml:11:5-14:38
MERGED from [com.android.support:appcompat-v7:23.4.0] /home/devel-73/.android/build-cache/5919819eb2f89e1e2edb9ae359d40dfe12205992/output/AndroidManifest.xml:25:5-20
MERGED from [com.android.support:animated-vector-drawable:23.4.0] /home/devel-73/.android/build-cache/4722c04fe7fec9d278d71bfde0f50d360c0a8b68/output/AndroidManifest.xml:7:5-20
MERGED from [com.android.support:support-vector-drawable:23.4.0] /home/devel-73/.android/build-cache/dc0409030788e36eb7542832a230e04e37fffa76/output/AndroidManifest.xml:7:5-20
MERGED from [com.android.support:support-v4:23.4.0] /home/devel-73/.android/build-cache/585b83894941535f07636e9fa92306c10365ad4a/output/AndroidManifest.xml:22:5-20
	android:label
		ADDED from /home/devel-73/Balaji/AndroidStudioProjects/AchaDiscount/app/src/main/AndroidManifest.xml:35:9-41
	android:supportsRtl
		ADDED from [info.androidramp:loading-gear:1.0.4] /home/devel-73/.android/build-cache/73363745e1ab4eb7bc67db17ebe4130f514f72bf/output/AndroidManifest.xml:14:9-35
	android:hardwareAccelerated
		ADDED from /home/devel-73/Balaji/AndroidStudioProjects/AchaDiscount/app/src/main/AndroidManifest.xml:33:9-43
	android:uiOptions
		ADDED from /home/devel-73/Balaji/AndroidStudioProjects/AchaDiscount/app/src/main/AndroidManifest.xml:38:9-53
	android:allowBackup
		ADDED from /home/devel-73/Balaji/AndroidStudioProjects/AchaDiscount/app/src/main/AndroidManifest.xml:32:9-35
	android:icon
		ADDED from /home/devel-73/Balaji/AndroidStudioProjects/AchaDiscount/app/src/main/AndroidManifest.xml:34:9-39
	android:largeHeap
		ADDED from /home/devel-73/Balaji/AndroidStudioProjects/AchaDiscount/app/src/main/AndroidManifest.xml:36:9-33
	android:theme
		ADDED from /home/devel-73/Balaji/AndroidStudioProjects/AchaDiscount/app/src/main/AndroidManifest.xml:37:9-39
activity#com.application.ads.extra.SplashScreenActivity
ADDED from /home/devel-73/Balaji/AndroidStudioProjects/AchaDiscount/app/src/main/AndroidManifest.xml:39:9-48:20
	android:screenOrientation
		ADDED from /home/devel-73/Balaji/AndroidStudioProjects/AchaDiscount/app/src/main/AndroidManifest.xml:42:13-49
	android:label
		ADDED from /home/devel-73/Balaji/AndroidStudioProjects/AchaDiscount/app/src/main/AndroidManifest.xml:41:13-45
	android:name
		ADDED from /home/devel-73/Balaji/AndroidStudioProjects/AchaDiscount/app/src/main/AndroidManifest.xml:40:13-74
intent-filter#android.intent.action.MAIN+android.intent.category.LAUNCHER
ADDED from /home/devel-73/Balaji/AndroidStudioProjects/AchaDiscount/app/src/main/AndroidManifest.xml:43:13-47:29
action#android.intent.action.MAIN
ADDED from /home/devel-73/Balaji/AndroidStudioProjects/AchaDiscount/app/src/main/AndroidManifest.xml:44:17-69
	android:name
		ADDED from /home/devel-73/Balaji/AndroidStudioProjects/AchaDiscount/app/src/main/AndroidManifest.xml:44:25-66
category#android.intent.category.LAUNCHER
ADDED from /home/devel-73/Balaji/AndroidStudioProjects/AchaDiscount/app/src/main/AndroidManifest.xml:46:17-77
	android:name
		ADDED from /home/devel-73/Balaji/AndroidStudioProjects/AchaDiscount/app/src/main/AndroidManifest.xml:46:27-74
activity#com.application.ads.NavigationActivity
ADDED from /home/devel-73/Balaji/AndroidStudioProjects/AchaDiscount/app/src/main/AndroidManifest.xml:49:9-51:52
	android:screenOrientation
		ADDED from /home/devel-73/Balaji/AndroidStudioProjects/AchaDiscount/app/src/main/AndroidManifest.xml:51:13-49
	android:name
		ADDED from /home/devel-73/Balaji/AndroidStudioProjects/AchaDiscount/app/src/main/AndroidManifest.xml:50:13-66
activity#com.application.ads.ForgotPassword
ADDED from /home/devel-73/Balaji/AndroidStudioProjects/AchaDiscount/app/src/main/AndroidManifest.xml:52:9-54:52
	android:screenOrientation
		ADDED from /home/devel-73/Balaji/AndroidStudioProjects/AchaDiscount/app/src/main/AndroidManifest.xml:54:13-49
	android:name
		ADDED from /home/devel-73/Balaji/AndroidStudioProjects/AchaDiscount/app/src/main/AndroidManifest.xml:53:13-62
activity#com.application.ads.CouponGoToStore
ADDED from /home/devel-73/Balaji/AndroidStudioProjects/AchaDiscount/app/src/main/AndroidManifest.xml:55:9-57:52
	android:screenOrientation
		ADDED from /home/devel-73/Balaji/AndroidStudioProjects/AchaDiscount/app/src/main/AndroidManifest.xml:57:13-49
	android:name
		ADDED from /home/devel-73/Balaji/AndroidStudioProjects/AchaDiscount/app/src/main/AndroidManifest.xml:56:13-63
activity#com.application.ads.RegisterActivity
ADDED from /home/devel-73/Balaji/AndroidStudioProjects/AchaDiscount/app/src/main/AndroidManifest.xml:58:9-108:20
	android:screenOrientation
		ADDED from /home/devel-73/Balaji/AndroidStudioProjects/AchaDiscount/app/src/main/AndroidManifest.xml:60:13-49
	android:name
		ADDED from /home/devel-73/Balaji/AndroidStudioProjects/AchaDiscount/app/src/main/AndroidManifest.xml:59:13-64
intent-filter#android.intent.action.VIEW+android.intent.category.BROWSABLE+android.intent.category.DEFAULT
ADDED from /home/devel-73/Balaji/AndroidStudioProjects/AchaDiscount/app/src/main/AndroidManifest.xml:62:13-106:29
action#android.intent.action.VIEW
ADDED from /home/devel-73/Balaji/AndroidStudioProjects/AchaDiscount/app/src/main/AndroidManifest.xml:63:17-69
	android:name
		ADDED from /home/devel-73/Balaji/AndroidStudioProjects/AchaDiscount/app/src/main/AndroidManifest.xml:63:25-66
category#android.intent.category.DEFAULT
ADDED from /home/devel-73/Balaji/AndroidStudioProjects/AchaDiscount/app/src/main/AndroidManifest.xml:65:17-76
	android:name
		ADDED from /home/devel-73/Balaji/AndroidStudioProjects/AchaDiscount/app/src/main/AndroidManifest.xml:65:27-73
category#android.intent.category.BROWSABLE
ADDED from /home/devel-73/Balaji/AndroidStudioProjects/AchaDiscount/app/src/main/AndroidManifest.xml:66:17-78
	android:name
		ADDED from /home/devel-73/Balaji/AndroidStudioProjects/AchaDiscount/app/src/main/AndroidManifest.xml:66:27-75
data
ADDED from /home/devel-73/Balaji/AndroidStudioProjects/AchaDiscount/app/src/main/AndroidManifest.xml:68:17-71:46
	android:host
		ADDED from /home/devel-73/Balaji/AndroidStudioProjects/AchaDiscount/app/src/main/AndroidManifest.xml:69:21-51
	android:scheme
		ADDED from /home/devel-73/Balaji/AndroidStudioProjects/AchaDiscount/app/src/main/AndroidManifest.xml:71:21-43
	android:pathPrefix
		ADDED from /home/devel-73/Balaji/AndroidStudioProjects/AchaDiscount/app/src/main/AndroidManifest.xml:70:21-52
activity#com.application.ads.LoginActivity
ADDED from /home/devel-73/Balaji/AndroidStudioProjects/AchaDiscount/app/src/main/AndroidManifest.xml:109:9-114:20
	android:screenOrientation
		ADDED from /home/devel-73/Balaji/AndroidStudioProjects/AchaDiscount/app/src/main/AndroidManifest.xml:112:13-49
	android:launchMode
		ADDED from /home/devel-73/Balaji/AndroidStudioProjects/AchaDiscount/app/src/main/AndroidManifest.xml:111:13-44
	android:name
		ADDED from /home/devel-73/Balaji/AndroidStudioProjects/AchaDiscount/app/src/main/AndroidManifest.xml:110:13-61
activity#com.application.ads.ProductDetailsActivity
ADDED from /home/devel-73/Balaji/AndroidStudioProjects/AchaDiscount/app/src/main/AndroidManifest.xml:116:9-118:52
	android:screenOrientation
		ADDED from /home/devel-73/Balaji/AndroidStudioProjects/AchaDiscount/app/src/main/AndroidManifest.xml:118:13-49
	android:name
		ADDED from /home/devel-73/Balaji/AndroidStudioProjects/AchaDiscount/app/src/main/AndroidManifest.xml:117:13-70
activity#com.application.ads.SearchProductDetailsActivity
ADDED from /home/devel-73/Balaji/AndroidStudioProjects/AchaDiscount/app/src/main/AndroidManifest.xml:119:9-121:52
	android:screenOrientation
		ADDED from /home/devel-73/Balaji/AndroidStudioProjects/AchaDiscount/app/src/main/AndroidManifest.xml:121:13-49
	android:name
		ADDED from /home/devel-73/Balaji/AndroidStudioProjects/AchaDiscount/app/src/main/AndroidManifest.xml:120:13-76
activity#com.application.ads.ProductSoloDetailsWithCompare
ADDED from /home/devel-73/Balaji/AndroidStudioProjects/AchaDiscount/app/src/main/AndroidManifest.xml:122:9-124:52
	android:screenOrientation
		ADDED from /home/devel-73/Balaji/AndroidStudioProjects/AchaDiscount/app/src/main/AndroidManifest.xml:124:13-49
	android:name
		ADDED from /home/devel-73/Balaji/AndroidStudioProjects/AchaDiscount/app/src/main/AndroidManifest.xml:123:13-77
activity#com.application.ads.CouponList
ADDED from /home/devel-73/Balaji/AndroidStudioProjects/AchaDiscount/app/src/main/AndroidManifest.xml:125:9-127:52
	android:screenOrientation
		ADDED from /home/devel-73/Balaji/AndroidStudioProjects/AchaDiscount/app/src/main/AndroidManifest.xml:127:13-49
	android:name
		ADDED from /home/devel-73/Balaji/AndroidStudioProjects/AchaDiscount/app/src/main/AndroidManifest.xml:126:13-58
activity#com.application.ads.CodeGenerationPage
ADDED from /home/devel-73/Balaji/AndroidStudioProjects/AchaDiscount/app/src/main/AndroidManifest.xml:128:9-130:52
	android:screenOrientation
		ADDED from /home/devel-73/Balaji/AndroidStudioProjects/AchaDiscount/app/src/main/AndroidManifest.xml:130:13-49
	android:name
		ADDED from /home/devel-73/Balaji/AndroidStudioProjects/AchaDiscount/app/src/main/AndroidManifest.xml:129:13-66
activity#com.application.ads.OfferPage
ADDED from /home/devel-73/Balaji/AndroidStudioProjects/AchaDiscount/app/src/main/AndroidManifest.xml:131:9-133:52
	android:screenOrientation
		ADDED from /home/devel-73/Balaji/AndroidStudioProjects/AchaDiscount/app/src/main/AndroidManifest.xml:133:13-49
	android:name
		ADDED from /home/devel-73/Balaji/AndroidStudioProjects/AchaDiscount/app/src/main/AndroidManifest.xml:132:13-57
activity#com.application.ads.LoadTopCouponsList
ADDED from /home/devel-73/Balaji/AndroidStudioProjects/AchaDiscount/app/src/main/AndroidManifest.xml:134:9-136:52
	android:screenOrientation
		ADDED from /home/devel-73/Balaji/AndroidStudioProjects/AchaDiscount/app/src/main/AndroidManifest.xml:136:13-49
	android:name
		ADDED from /home/devel-73/Balaji/AndroidStudioProjects/AchaDiscount/app/src/main/AndroidManifest.xml:135:13-66
activity#com.application.ads.OnlineBrandListing
ADDED from /home/devel-73/Balaji/AndroidStudioProjects/AchaDiscount/app/src/main/AndroidManifest.xml:137:9-139:52
	android:screenOrientation
		ADDED from /home/devel-73/Balaji/AndroidStudioProjects/AchaDiscount/app/src/main/AndroidManifest.xml:139:13-49
	android:name
		ADDED from /home/devel-73/Balaji/AndroidStudioProjects/AchaDiscount/app/src/main/AndroidManifest.xml:138:13-66
activity#com.application.ads.BrandListActivity
ADDED from /home/devel-73/Balaji/AndroidStudioProjects/AchaDiscount/app/src/main/AndroidManifest.xml:140:9-142:52
	android:screenOrientation
		ADDED from /home/devel-73/Balaji/AndroidStudioProjects/AchaDiscount/app/src/main/AndroidManifest.xml:142:13-49
	android:name
		ADDED from /home/devel-73/Balaji/AndroidStudioProjects/AchaDiscount/app/src/main/AndroidManifest.xml:141:13-65
activity#com.application.ads.ProductGotoStore
ADDED from /home/devel-73/Balaji/AndroidStudioProjects/AchaDiscount/app/src/main/AndroidManifest.xml:143:9-146:52
	android:screenOrientation
		ADDED from /home/devel-73/Balaji/AndroidStudioProjects/AchaDiscount/app/src/main/AndroidManifest.xml:146:13-49
	android:hardwareAccelerated
		ADDED from /home/devel-73/Balaji/AndroidStudioProjects/AchaDiscount/app/src/main/AndroidManifest.xml:145:13-48
	android:name
		ADDED from /home/devel-73/Balaji/AndroidStudioProjects/AchaDiscount/app/src/main/AndroidManifest.xml:144:13-64
activity#com.application.ads.ProductOfflineMap
ADDED from /home/devel-73/Balaji/AndroidStudioProjects/AchaDiscount/app/src/main/AndroidManifest.xml:147:9-149:52
	android:screenOrientation
		ADDED from /home/devel-73/Balaji/AndroidStudioProjects/AchaDiscount/app/src/main/AndroidManifest.xml:149:13-49
	android:name
		ADDED from /home/devel-73/Balaji/AndroidStudioProjects/AchaDiscount/app/src/main/AndroidManifest.xml:148:13-65
activity#com.application.ads.ProductOverView
ADDED from /home/devel-73/Balaji/AndroidStudioProjects/AchaDiscount/app/src/main/AndroidManifest.xml:150:9-152:52
	android:screenOrientation
		ADDED from /home/devel-73/Balaji/AndroidStudioProjects/AchaDiscount/app/src/main/AndroidManifest.xml:152:13-49
	android:name
		ADDED from /home/devel-73/Balaji/AndroidStudioProjects/AchaDiscount/app/src/main/AndroidManifest.xml:151:13-63
activity#com.application.ads.CompareProductsActivity
ADDED from /home/devel-73/Balaji/AndroidStudioProjects/AchaDiscount/app/src/main/AndroidManifest.xml:153:9-155:52
	android:screenOrientation
		ADDED from /home/devel-73/Balaji/AndroidStudioProjects/AchaDiscount/app/src/main/AndroidManifest.xml:155:13-49
	android:name
		ADDED from /home/devel-73/Balaji/AndroidStudioProjects/AchaDiscount/app/src/main/AndroidManifest.xml:154:13-71
activity#com.application.ads.CompareProductListActivity
ADDED from /home/devel-73/Balaji/AndroidStudioProjects/AchaDiscount/app/src/main/AndroidManifest.xml:156:9-158:52
	android:screenOrientation
		ADDED from /home/devel-73/Balaji/AndroidStudioProjects/AchaDiscount/app/src/main/AndroidManifest.xml:158:13-49
	android:name
		ADDED from /home/devel-73/Balaji/AndroidStudioProjects/AchaDiscount/app/src/main/AndroidManifest.xml:157:13-74
activity#com.application.ads.FilterActivity
ADDED from /home/devel-73/Balaji/AndroidStudioProjects/AchaDiscount/app/src/main/AndroidManifest.xml:159:9-161:52
	android:screenOrientation
		ADDED from /home/devel-73/Balaji/AndroidStudioProjects/AchaDiscount/app/src/main/AndroidManifest.xml:161:13-49
	android:name
		ADDED from /home/devel-73/Balaji/AndroidStudioProjects/AchaDiscount/app/src/main/AndroidManifest.xml:160:13-62
activity#com.application.ads.OfflineHomeNavigation
ADDED from /home/devel-73/Balaji/AndroidStudioProjects/AchaDiscount/app/src/main/AndroidManifest.xml:162:9-164:52
	android:screenOrientation
		ADDED from /home/devel-73/Balaji/AndroidStudioProjects/AchaDiscount/app/src/main/AndroidManifest.xml:164:13-49
	android:name
		ADDED from /home/devel-73/Balaji/AndroidStudioProjects/AchaDiscount/app/src/main/AndroidManifest.xml:163:13-69
activity#com.application.ads.OfflineMap
ADDED from /home/devel-73/Balaji/AndroidStudioProjects/AchaDiscount/app/src/main/AndroidManifest.xml:165:9-167:52
	android:screenOrientation
		ADDED from /home/devel-73/Balaji/AndroidStudioProjects/AchaDiscount/app/src/main/AndroidManifest.xml:167:13-49
	android:name
		ADDED from /home/devel-73/Balaji/AndroidStudioProjects/AchaDiscount/app/src/main/AndroidManifest.xml:166:13-58
activity#com.application.ads.TopStoresList
ADDED from /home/devel-73/Balaji/AndroidStudioProjects/AchaDiscount/app/src/main/AndroidManifest.xml:168:9-170:52
	android:screenOrientation
		ADDED from /home/devel-73/Balaji/AndroidStudioProjects/AchaDiscount/app/src/main/AndroidManifest.xml:170:13-49
	android:name
		ADDED from /home/devel-73/Balaji/AndroidStudioProjects/AchaDiscount/app/src/main/AndroidManifest.xml:169:13-61
activity#com.application.ads.AddReviews
ADDED from /home/devel-73/Balaji/AndroidStudioProjects/AchaDiscount/app/src/main/AndroidManifest.xml:171:9-173:52
	android:screenOrientation
		ADDED from /home/devel-73/Balaji/AndroidStudioProjects/AchaDiscount/app/src/main/AndroidManifest.xml:173:13-49
	android:name
		ADDED from /home/devel-73/Balaji/AndroidStudioProjects/AchaDiscount/app/src/main/AndroidManifest.xml:172:13-58
activity#com.application.ads.LoadReviews
ADDED from /home/devel-73/Balaji/AndroidStudioProjects/AchaDiscount/app/src/main/AndroidManifest.xml:174:9-176:52
	android:screenOrientation
		ADDED from /home/devel-73/Balaji/AndroidStudioProjects/AchaDiscount/app/src/main/AndroidManifest.xml:176:13-49
	android:name
		ADDED from /home/devel-73/Balaji/AndroidStudioProjects/AchaDiscount/app/src/main/AndroidManifest.xml:175:13-59
activity#com.application.ads.TopCashbackOffers
ADDED from /home/devel-73/Balaji/AndroidStudioProjects/AchaDiscount/app/src/main/AndroidManifest.xml:177:9-179:52
	android:screenOrientation
		ADDED from /home/devel-73/Balaji/AndroidStudioProjects/AchaDiscount/app/src/main/AndroidManifest.xml:179:13-49
	android:name
		ADDED from /home/devel-73/Balaji/AndroidStudioProjects/AchaDiscount/app/src/main/AndroidManifest.xml:178:13-65
activity#com.application.ads.CouponNavigation
ADDED from /home/devel-73/Balaji/AndroidStudioProjects/AchaDiscount/app/src/main/AndroidManifest.xml:180:9-182:52
	android:screenOrientation
		ADDED from /home/devel-73/Balaji/AndroidStudioProjects/AchaDiscount/app/src/main/AndroidManifest.xml:182:13-49
	android:name
		ADDED from /home/devel-73/Balaji/AndroidStudioProjects/AchaDiscount/app/src/main/AndroidManifest.xml:181:13-64
activity#com.application.ads.CouponCategoryList
ADDED from /home/devel-73/Balaji/AndroidStudioProjects/AchaDiscount/app/src/main/AndroidManifest.xml:183:9-185:52
	android:screenOrientation
		ADDED from /home/devel-73/Balaji/AndroidStudioProjects/AchaDiscount/app/src/main/AndroidManifest.xml:185:13-49
	android:name
		ADDED from /home/devel-73/Balaji/AndroidStudioProjects/AchaDiscount/app/src/main/AndroidManifest.xml:184:13-66
activity#com.application.ads.SalableCoupons
ADDED from /home/devel-73/Balaji/AndroidStudioProjects/AchaDiscount/app/src/main/AndroidManifest.xml:186:9-188:52
	android:screenOrientation
		ADDED from /home/devel-73/Balaji/AndroidStudioProjects/AchaDiscount/app/src/main/AndroidManifest.xml:188:13-49
	android:name
		ADDED from /home/devel-73/Balaji/AndroidStudioProjects/AchaDiscount/app/src/main/AndroidManifest.xml:187:13-62
activity#com.application.ads.SalableCouponDetails
ADDED from /home/devel-73/Balaji/AndroidStudioProjects/AchaDiscount/app/src/main/AndroidManifest.xml:189:9-191:52
	android:screenOrientation
		ADDED from /home/devel-73/Balaji/AndroidStudioProjects/AchaDiscount/app/src/main/AndroidManifest.xml:191:13-49
	android:name
		ADDED from /home/devel-73/Balaji/AndroidStudioProjects/AchaDiscount/app/src/main/AndroidManifest.xml:190:13-68
activity#com.application.ads.AccountSetting
ADDED from /home/devel-73/Balaji/AndroidStudioProjects/AchaDiscount/app/src/main/AndroidManifest.xml:192:9-194:52
	android:screenOrientation
		ADDED from /home/devel-73/Balaji/AndroidStudioProjects/AchaDiscount/app/src/main/AndroidManifest.xml:194:13-49
	android:name
		ADDED from /home/devel-73/Balaji/AndroidStudioProjects/AchaDiscount/app/src/main/AndroidManifest.xml:193:13-62
activity#com.application.ads.AddCashbackTicket
ADDED from /home/devel-73/Balaji/AndroidStudioProjects/AchaDiscount/app/src/main/AndroidManifest.xml:195:9-197:52
	android:screenOrientation
		ADDED from /home/devel-73/Balaji/AndroidStudioProjects/AchaDiscount/app/src/main/AndroidManifest.xml:197:13-49
	android:name
		ADDED from /home/devel-73/Balaji/AndroidStudioProjects/AchaDiscount/app/src/main/AndroidManifest.xml:196:13-65
activity#com.application.ads.AccountTitle
ADDED from /home/devel-73/Balaji/AndroidStudioProjects/AchaDiscount/app/src/main/AndroidManifest.xml:198:9-200:52
	android:screenOrientation
		ADDED from /home/devel-73/Balaji/AndroidStudioProjects/AchaDiscount/app/src/main/AndroidManifest.xml:200:13-49
	android:name
		ADDED from /home/devel-73/Balaji/AndroidStudioProjects/AchaDiscount/app/src/main/AndroidManifest.xml:199:13-60
activity#com.application.ads.AddReferalActivity
ADDED from /home/devel-73/Balaji/AndroidStudioProjects/AchaDiscount/app/src/main/AndroidManifest.xml:201:9-203:52
	android:screenOrientation
		ADDED from /home/devel-73/Balaji/AndroidStudioProjects/AchaDiscount/app/src/main/AndroidManifest.xml:203:13-49
	android:name
		ADDED from /home/devel-73/Balaji/AndroidStudioProjects/AchaDiscount/app/src/main/AndroidManifest.xml:202:13-66
activity#com.application.ads.BankPayment
ADDED from /home/devel-73/Balaji/AndroidStudioProjects/AchaDiscount/app/src/main/AndroidManifest.xml:204:9-206:52
	android:screenOrientation
		ADDED from /home/devel-73/Balaji/AndroidStudioProjects/AchaDiscount/app/src/main/AndroidManifest.xml:206:13-49
	android:name
		ADDED from /home/devel-73/Balaji/AndroidStudioProjects/AchaDiscount/app/src/main/AndroidManifest.xml:205:13-59
activity#com.application.ads.ChangePassword
ADDED from /home/devel-73/Balaji/AndroidStudioProjects/AchaDiscount/app/src/main/AndroidManifest.xml:207:9-209:52
	android:screenOrientation
		ADDED from /home/devel-73/Balaji/AndroidStudioProjects/AchaDiscount/app/src/main/AndroidManifest.xml:209:13-49
	android:name
		ADDED from /home/devel-73/Balaji/AndroidStudioProjects/AchaDiscount/app/src/main/AndroidManifest.xml:208:13-62
activity#com.application.ads.MissingCashBack
ADDED from /home/devel-73/Balaji/AndroidStudioProjects/AchaDiscount/app/src/main/AndroidManifest.xml:210:9-212:52
	android:screenOrientation
		ADDED from /home/devel-73/Balaji/AndroidStudioProjects/AchaDiscount/app/src/main/AndroidManifest.xml:212:13-49
	android:name
		ADDED from /home/devel-73/Balaji/AndroidStudioProjects/AchaDiscount/app/src/main/AndroidManifest.xml:211:13-63
activity#com.application.ads.MyEarnings
ADDED from /home/devel-73/Balaji/AndroidStudioProjects/AchaDiscount/app/src/main/AndroidManifest.xml:213:9-215:52
	android:screenOrientation
		ADDED from /home/devel-73/Balaji/AndroidStudioProjects/AchaDiscount/app/src/main/AndroidManifest.xml:215:13-49
	android:name
		ADDED from /home/devel-73/Balaji/AndroidStudioProjects/AchaDiscount/app/src/main/AndroidManifest.xml:214:13-58
activity#com.application.ads.MyWishListActivity
ADDED from /home/devel-73/Balaji/AndroidStudioProjects/AchaDiscount/app/src/main/AndroidManifest.xml:216:9-218:52
	android:screenOrientation
		ADDED from /home/devel-73/Balaji/AndroidStudioProjects/AchaDiscount/app/src/main/AndroidManifest.xml:218:13-49
	android:name
		ADDED from /home/devel-73/Balaji/AndroidStudioProjects/AchaDiscount/app/src/main/AndroidManifest.xml:217:13-66
activity#com.application.ads.Payments
ADDED from /home/devel-73/Balaji/AndroidStudioProjects/AchaDiscount/app/src/main/AndroidManifest.xml:219:9-221:52
	android:screenOrientation
		ADDED from /home/devel-73/Balaji/AndroidStudioProjects/AchaDiscount/app/src/main/AndroidManifest.xml:221:13-49
	android:name
		ADDED from /home/devel-73/Balaji/AndroidStudioProjects/AchaDiscount/app/src/main/AndroidManifest.xml:220:13-56
activity#com.application.ads.Transactions
ADDED from /home/devel-73/Balaji/AndroidStudioProjects/AchaDiscount/app/src/main/AndroidManifest.xml:222:9-224:52
	android:screenOrientation
		ADDED from /home/devel-73/Balaji/AndroidStudioProjects/AchaDiscount/app/src/main/AndroidManifest.xml:224:13-49
	android:name
		ADDED from /home/devel-73/Balaji/AndroidStudioProjects/AchaDiscount/app/src/main/AndroidManifest.xml:223:13-60
activity#com.application.ads.WithdrawActivity
ADDED from /home/devel-73/Balaji/AndroidStudioProjects/AchaDiscount/app/src/main/AndroidManifest.xml:225:9-227:52
	android:screenOrientation
		ADDED from /home/devel-73/Balaji/AndroidStudioProjects/AchaDiscount/app/src/main/AndroidManifest.xml:227:13-49
	android:name
		ADDED from /home/devel-73/Balaji/AndroidStudioProjects/AchaDiscount/app/src/main/AndroidManifest.xml:226:13-64
activity#com.application.ads.paymentgate.PayUMoneyActivity
ADDED from /home/devel-73/Balaji/AndroidStudioProjects/AchaDiscount/app/src/main/AndroidManifest.xml:228:9-230:52
	android:screenOrientation
		ADDED from /home/devel-73/Balaji/AndroidStudioProjects/AchaDiscount/app/src/main/AndroidManifest.xml:230:13-49
	android:name
		ADDED from /home/devel-73/Balaji/AndroidStudioProjects/AchaDiscount/app/src/main/AndroidManifest.xml:229:13-77
activity#com.application.ads.OfflineOfferMap
ADDED from /home/devel-73/Balaji/AndroidStudioProjects/AchaDiscount/app/src/main/AndroidManifest.xml:231:9-233:52
	android:screenOrientation
		ADDED from /home/devel-73/Balaji/AndroidStudioProjects/AchaDiscount/app/src/main/AndroidManifest.xml:233:13-49
	android:name
		ADDED from /home/devel-73/Balaji/AndroidStudioProjects/AchaDiscount/app/src/main/AndroidManifest.xml:232:13-63
activity#com.application.ads.OfflineOfferDetails
ADDED from /home/devel-73/Balaji/AndroidStudioProjects/AchaDiscount/app/src/main/AndroidManifest.xml:234:9-236:52
	android:screenOrientation
		ADDED from /home/devel-73/Balaji/AndroidStudioProjects/AchaDiscount/app/src/main/AndroidManifest.xml:236:13-49
	android:name
		ADDED from /home/devel-73/Balaji/AndroidStudioProjects/AchaDiscount/app/src/main/AndroidManifest.xml:235:13-67
activity#com.application.ads.OfflineFilterActivity
ADDED from /home/devel-73/Balaji/AndroidStudioProjects/AchaDiscount/app/src/main/AndroidManifest.xml:237:9-239:52
	android:screenOrientation
		ADDED from /home/devel-73/Balaji/AndroidStudioProjects/AchaDiscount/app/src/main/AndroidManifest.xml:239:13-49
	android:name
		ADDED from /home/devel-73/Balaji/AndroidStudioProjects/AchaDiscount/app/src/main/AndroidManifest.xml:238:13-69
activity#com.application.ads.OfflineBrandsHome
ADDED from /home/devel-73/Balaji/AndroidStudioProjects/AchaDiscount/app/src/main/AndroidManifest.xml:240:9-242:52
	android:screenOrientation
		ADDED from /home/devel-73/Balaji/AndroidStudioProjects/AchaDiscount/app/src/main/AndroidManifest.xml:242:13-49
	android:name
		ADDED from /home/devel-73/Balaji/AndroidStudioProjects/AchaDiscount/app/src/main/AndroidManifest.xml:241:13-65
activity#com.application.ads.OfflineBrandDetails
ADDED from /home/devel-73/Balaji/AndroidStudioProjects/AchaDiscount/app/src/main/AndroidManifest.xml:243:9-245:52
	android:screenOrientation
		ADDED from /home/devel-73/Balaji/AndroidStudioProjects/AchaDiscount/app/src/main/AndroidManifest.xml:245:13-49
	android:name
		ADDED from /home/devel-73/Balaji/AndroidStudioProjects/AchaDiscount/app/src/main/AndroidManifest.xml:244:13-67
activity#com.application.ads.OfflineUpcomingOffer
ADDED from /home/devel-73/Balaji/AndroidStudioProjects/AchaDiscount/app/src/main/AndroidManifest.xml:246:9-248:52
	android:screenOrientation
		ADDED from /home/devel-73/Balaji/AndroidStudioProjects/AchaDiscount/app/src/main/AndroidManifest.xml:248:13-49
	android:name
		ADDED from /home/devel-73/Balaji/AndroidStudioProjects/AchaDiscount/app/src/main/AndroidManifest.xml:247:13-68
activity#com.application.ads.OfflineExpiredOffer
ADDED from /home/devel-73/Balaji/AndroidStudioProjects/AchaDiscount/app/src/main/AndroidManifest.xml:249:9-251:52
	android:screenOrientation
		ADDED from /home/devel-73/Balaji/AndroidStudioProjects/AchaDiscount/app/src/main/AndroidManifest.xml:251:13-49
	android:name
		ADDED from /home/devel-73/Balaji/AndroidStudioProjects/AchaDiscount/app/src/main/AndroidManifest.xml:250:13-67
activity#com.application.ads.OnlineHomeNavigation
ADDED from /home/devel-73/Balaji/AndroidStudioProjects/AchaDiscount/app/src/main/AndroidManifest.xml:252:9-254:52
	android:screenOrientation
		ADDED from /home/devel-73/Balaji/AndroidStudioProjects/AchaDiscount/app/src/main/AndroidManifest.xml:254:13-49
	android:name
		ADDED from /home/devel-73/Balaji/AndroidStudioProjects/AchaDiscount/app/src/main/AndroidManifest.xml:253:13-68
activity#com.application.ads.PrivacyPolicy
ADDED from /home/devel-73/Balaji/AndroidStudioProjects/AchaDiscount/app/src/main/AndroidManifest.xml:255:9-257:52
	android:screenOrientation
		ADDED from /home/devel-73/Balaji/AndroidStudioProjects/AchaDiscount/app/src/main/AndroidManifest.xml:257:13-49
	android:name
		ADDED from /home/devel-73/Balaji/AndroidStudioProjects/AchaDiscount/app/src/main/AndroidManifest.xml:256:13-61
activity#com.application.ads.FAQ
ADDED from /home/devel-73/Balaji/AndroidStudioProjects/AchaDiscount/app/src/main/AndroidManifest.xml:258:9-260:52
	android:screenOrientation
		ADDED from /home/devel-73/Balaji/AndroidStudioProjects/AchaDiscount/app/src/main/AndroidManifest.xml:260:13-49
	android:name
		ADDED from /home/devel-73/Balaji/AndroidStudioProjects/AchaDiscount/app/src/main/AndroidManifest.xml:259:13-51
activity#com.application.ads.AboutUs
ADDED from /home/devel-73/Balaji/AndroidStudioProjects/AchaDiscount/app/src/main/AndroidManifest.xml:261:9-263:52
	android:screenOrientation
		ADDED from /home/devel-73/Balaji/AndroidStudioProjects/AchaDiscount/app/src/main/AndroidManifest.xml:263:13-49
	android:name
		ADDED from /home/devel-73/Balaji/AndroidStudioProjects/AchaDiscount/app/src/main/AndroidManifest.xml:262:13-55
activity#com.application.ads.TermsandConditions
ADDED from /home/devel-73/Balaji/AndroidStudioProjects/AchaDiscount/app/src/main/AndroidManifest.xml:264:9-266:52
	android:screenOrientation
		ADDED from /home/devel-73/Balaji/AndroidStudioProjects/AchaDiscount/app/src/main/AndroidManifest.xml:266:13-49
	android:name
		ADDED from /home/devel-73/Balaji/AndroidStudioProjects/AchaDiscount/app/src/main/AndroidManifest.xml:265:13-66
activity#com.application.ads.ReferralNetwork
ADDED from /home/devel-73/Balaji/AndroidStudioProjects/AchaDiscount/app/src/main/AndroidManifest.xml:267:9-269:52
	android:screenOrientation
		ADDED from /home/devel-73/Balaji/AndroidStudioProjects/AchaDiscount/app/src/main/AndroidManifest.xml:269:13-49
	android:name
		ADDED from /home/devel-73/Balaji/AndroidStudioProjects/AchaDiscount/app/src/main/AndroidManifest.xml:268:13-63
meta-data#com.google.android.gms.version
ADDED from /home/devel-73/Balaji/AndroidStudioProjects/AchaDiscount/app/src/main/AndroidManifest.xml:271:9-273:69
MERGED from [com.google.android.gms:play-services-basement:8.4.0] /home/devel-73/.android/build-cache/1bbef4dc9002d9c3bcc33f0690ba0abc30cb371a/output/AndroidManifest.xml:21:9-23:69
	android:value
		ADDED from /home/devel-73/Balaji/AndroidStudioProjects/AchaDiscount/app/src/main/AndroidManifest.xml:273:13-66
	android:name
		ADDED from /home/devel-73/Balaji/AndroidStudioProjects/AchaDiscount/app/src/main/AndroidManifest.xml:272:13-58
intent-filter#android.intent.action.SEND+android.intent.category.DEFAULT
ADDED from /home/devel-73/Balaji/AndroidStudioProjects/AchaDiscount/app/src/main/AndroidManifest.xml:275:9-279:25
action#android.intent.action.SEND
ADDED from /home/devel-73/Balaji/AndroidStudioProjects/AchaDiscount/app/src/main/AndroidManifest.xml:276:13-65
	android:name
		ADDED from /home/devel-73/Balaji/AndroidStudioProjects/AchaDiscount/app/src/main/AndroidManifest.xml:276:21-62
meta-data#com.facebook.sdk.ApplicationId
ADDED from /home/devel-73/Balaji/AndroidStudioProjects/AchaDiscount/app/src/main/AndroidManifest.xml:286:9-288:46
	android:value
		ADDED from /home/devel-73/Balaji/AndroidStudioProjects/AchaDiscount/app/src/main/AndroidManifest.xml:288:13-43
	android:name
		ADDED from /home/devel-73/Balaji/AndroidStudioProjects/AchaDiscount/app/src/main/AndroidManifest.xml:287:13-58
activity#com.facebook.FacebookActivity
ADDED from /home/devel-73/Balaji/AndroidStudioProjects/AchaDiscount/app/src/main/AndroidManifest.xml:290:9-293:52
	android:screenOrientation
		ADDED from /home/devel-73/Balaji/AndroidStudioProjects/AchaDiscount/app/src/main/AndroidManifest.xml:293:13-49
	android:label
		ADDED from /home/devel-73/Balaji/AndroidStudioProjects/AchaDiscount/app/src/main/AndroidManifest.xml:292:13-45
	android:name
		ADDED from /home/devel-73/Balaji/AndroidStudioProjects/AchaDiscount/app/src/main/AndroidManifest.xml:291:13-57
provider#com.facebook.FacebookContentProvider
ADDED from /home/devel-73/Balaji/AndroidStudioProjects/AchaDiscount/app/src/main/AndroidManifest.xml:295:9-298:39
	android:authorities
		ADDED from /home/devel-73/Balaji/AndroidStudioProjects/AchaDiscount/app/src/main/AndroidManifest.xml:297:13-75
	android:exported
		ADDED from /home/devel-73/Balaji/AndroidStudioProjects/AchaDiscount/app/src/main/AndroidManifest.xml:298:13-36
	android:name
		ADDED from /home/devel-73/Balaji/AndroidStudioProjects/AchaDiscount/app/src/main/AndroidManifest.xml:296:13-64
meta-data#com.google.android.geo.API_KEY
ADDED from /home/devel-73/Balaji/AndroidStudioProjects/AchaDiscount/app/src/main/AndroidManifest.xml:318:9-320:71
	android:value
		ADDED from /home/devel-73/Balaji/AndroidStudioProjects/AchaDiscount/app/src/main/AndroidManifest.xml:320:13-68
	android:name
		ADDED from /home/devel-73/Balaji/AndroidStudioProjects/AchaDiscount/app/src/main/AndroidManifest.xml:319:13-58
activity#com.application.ads.MapsActivity
ADDED from /home/devel-73/Balaji/AndroidStudioProjects/AchaDiscount/app/src/main/AndroidManifest.xml:322:9-324:68
	android:label
		ADDED from /home/devel-73/Balaji/AndroidStudioProjects/AchaDiscount/app/src/main/AndroidManifest.xml:324:13-56
	android:name
		ADDED from /home/devel-73/Balaji/AndroidStudioProjects/AchaDiscount/app/src/main/AndroidManifest.xml:323:13-60
service#com.application.ads.OnClearFromRecentService
ADDED from /home/devel-73/Balaji/AndroidStudioProjects/AchaDiscount/app/src/main/AndroidManifest.xml:326:9-328:44
	android:stopWithTask
		ADDED from /home/devel-73/Balaji/AndroidStudioProjects/AchaDiscount/app/src/main/AndroidManifest.xml:328:13-41
	android:name
		ADDED from /home/devel-73/Balaji/AndroidStudioProjects/AchaDiscount/app/src/main/AndroidManifest.xml:327:13-72
uses-feature#0x00020000
ADDED from /home/devel-73/Balaji/AndroidStudioProjects/AchaDiscount/app/src/main/AndroidManifest.xml:331:5-333:35
MERGED from [com.google.android.gms:play-services-maps:8.4.0] /home/devel-73/.android/build-cache/d058c9cbe178de8088b4b6b62ae38998c045212c/output/AndroidManifest.xml:22:5-24:33
	android:glEsVersion
		ADDED from /home/devel-73/Balaji/AndroidStudioProjects/AchaDiscount/app/src/main/AndroidManifest.xml:332:9-41
	android:required
		ADDED from /home/devel-73/Balaji/AndroidStudioProjects/AchaDiscount/app/src/main/AndroidManifest.xml:333:9-32
activity#com.google.android.gms.ads.AdActivity
ADDED from [com.google.android.gms:play-services-ads:8.4.0] /home/devel-73/.android/build-cache/670b697b16672128bca733a22fd9141100846369/output/AndroidManifest.xml:26:9-29:64
	android:configChanges
		ADDED from [com.google.android.gms:play-services-ads:8.4.0] /home/devel-73/.android/build-cache/670b697b16672128bca733a22fd9141100846369/output/AndroidManifest.xml:28:13-122
	android:theme
		ADDED from [com.google.android.gms:play-services-ads:8.4.0] /home/devel-73/.android/build-cache/670b697b16672128bca733a22fd9141100846369/output/AndroidManifest.xml:29:13-61
	android:name
		ADDED from [com.google.android.gms:play-services-ads:8.4.0] /home/devel-73/.android/build-cache/670b697b16672128bca733a22fd9141100846369/output/AndroidManifest.xml:27:13-65
activity#com.google.android.gms.ads.purchase.InAppPurchaseActivity
ADDED from [com.google.android.gms:play-services-ads:8.4.0] /home/devel-73/.android/build-cache/670b697b16672128bca733a22fd9141100846369/output/AndroidManifest.xml:30:9-31:52
	android:theme
		ADDED from [com.google.android.gms:play-services-ads:8.4.0] /home/devel-73/.android/build-cache/670b697b16672128bca733a22fd9141100846369/output/AndroidManifest.xml:31:13-50
	android:name
		ADDED from [com.google.android.gms:play-services-ads:8.4.0] /home/devel-73/.android/build-cache/670b697b16672128bca733a22fd9141100846369/output/AndroidManifest.xml:30:19-91
activity#com.google.android.gms.appinvite.PreviewActivity
ADDED from [com.google.android.gms:play-services-appinvite:8.4.0] /home/devel-73/.android/build-cache/fc10d04b149cc5aa636cb252fb9ed536a3cf0a62/output/AndroidManifest.xml:21:9-29:20
	android:exported
		ADDED from [com.google.android.gms:play-services-appinvite:8.4.0] /home/devel-73/.android/build-cache/fc10d04b149cc5aa636cb252fb9ed536a3cf0a62/output/AndroidManifest.xml:23:17-40
	android:theme
		ADDED from [com.google.android.gms:play-services-appinvite:8.4.0] /home/devel-73/.android/build-cache/fc10d04b149cc5aa636cb252fb9ed536a3cf0a62/output/AndroidManifest.xml:24:17-63
	android:name
		ADDED from [com.google.android.gms:play-services-appinvite:8.4.0] /home/devel-73/.android/build-cache/fc10d04b149cc5aa636cb252fb9ed536a3cf0a62/output/AndroidManifest.xml:22:17-48
intent-filter#android.intent.category.DEFAULT+com.google.android.gms.appinvite.ACTION_PREVIEW
ADDED from [com.google.android.gms:play-services-appinvite:8.4.0] /home/devel-73/.android/build-cache/fc10d04b149cc5aa636cb252fb9ed536a3cf0a62/output/AndroidManifest.xml:25:13-28:29
action#com.google.android.gms.appinvite.ACTION_PREVIEW
ADDED from [com.google.android.gms:play-services-appinvite:8.4.0] /home/devel-73/.android/build-cache/fc10d04b149cc5aa636cb252fb9ed536a3cf0a62/output/AndroidManifest.xml:26:17-89
	android:name
		ADDED from [com.google.android.gms:play-services-appinvite:8.4.0] /home/devel-73/.android/build-cache/fc10d04b149cc5aa636cb252fb9ed536a3cf0a62/output/AndroidManifest.xml:26:25-87
activity#com.google.android.gms.auth.api.signin.internal.SignInHubActivity
ADDED from [com.google.android.gms:play-services-auth:8.4.0] /home/devel-73/.android/build-cache/2842006d9e83ba859d8dab122f16ec50166ffad9/output/AndroidManifest.xml:21:9-24:46
	android:excludeFromRecents
		ADDED from [com.google.android.gms:play-services-auth:8.4.0] /home/devel-73/.android/build-cache/2842006d9e83ba859d8dab122f16ec50166ffad9/output/AndroidManifest.xml:23:19-52
	android:exported
		ADDED from [com.google.android.gms:play-services-auth:8.4.0] /home/devel-73/.android/build-cache/2842006d9e83ba859d8dab122f16ec50166ffad9/output/AndroidManifest.xml:24:19-43
	android:theme
		ADDED from [com.google.android.gms:play-services-auth:8.4.0] /home/devel-73/.android/build-cache/2842006d9e83ba859d8dab122f16ec50166ffad9/output/AndroidManifest.xml:22:19-78
	android:name
		ADDED from [com.google.android.gms:play-services-auth:8.4.0] /home/devel-73/.android/build-cache/2842006d9e83ba859d8dab122f16ec50166ffad9/output/AndroidManifest.xml:21:19-72
service#com.google.android.gms.auth.api.signin.RevocationBoundService
ADDED from [com.google.android.gms:play-services-auth:8.4.0] /home/devel-73/.android/build-cache/2842006d9e83ba859d8dab122f16ec50166ffad9/output/AndroidManifest.xml:28:9-31:110
	android:exported
		ADDED from [com.google.android.gms:play-services-auth:8.4.0] /home/devel-73/.android/build-cache/2842006d9e83ba859d8dab122f16ec50166ffad9/output/AndroidManifest.xml:30:13-36
	android:permission
		ADDED from [com.google.android.gms:play-services-auth:8.4.0] /home/devel-73/.android/build-cache/2842006d9e83ba859d8dab122f16ec50166ffad9/output/AndroidManifest.xml:31:13-107
	android:name
		ADDED from [com.google.android.gms:play-services-auth:8.4.0] /home/devel-73/.android/build-cache/2842006d9e83ba859d8dab122f16ec50166ffad9/output/AndroidManifest.xml:29:13-62
uses-permission#com.google.android.c2dm.permission.RECEIVE
ADDED from [com.google.android.gms:play-services-gcm:8.4.0] /home/devel-73/.android/build-cache/07a5a3d70ee7a5a458dce7bd0158a64ae937a0b8/output/AndroidManifest.xml:21:5-82
	android:name
		ADDED from [com.google.android.gms:play-services-gcm:8.4.0] /home/devel-73/.android/build-cache/07a5a3d70ee7a5a458dce7bd0158a64ae937a0b8/output/AndroidManifest.xml:21:22-79
provider#com.google.android.gms.measurement.AppMeasurementContentProvider
ADDED from [com.google.android.gms:play-services-measurement:8.4.0] /home/devel-73/.android/build-cache/542188354804323e224af616642d37ea4afe2424/output/AndroidManifest.xml:28:7-31:37
	android:authorities
		ADDED from [com.google.android.gms:play-services-measurement:8.4.0] /home/devel-73/.android/build-cache/542188354804323e224af616642d37ea4afe2424/output/AndroidManifest.xml:29:11-76
	android:exported
		ADDED from [com.google.android.gms:play-services-measurement:8.4.0] /home/devel-73/.android/build-cache/542188354804323e224af616642d37ea4afe2424/output/AndroidManifest.xml:31:11-35
	android:name
		ADDED from [com.google.android.gms:play-services-measurement:8.4.0] /home/devel-73/.android/build-cache/542188354804323e224af616642d37ea4afe2424/output/AndroidManifest.xml:30:11-90
receiver#com.google.android.gms.measurement.AppMeasurementReceiver
ADDED from [com.google.android.gms:play-services-measurement:8.4.0] /home/devel-73/.android/build-cache/542188354804323e224af616642d37ea4afe2424/output/AndroidManifest.xml:33:7-39:18
	android:enabled
		ADDED from [com.google.android.gms:play-services-measurement:8.4.0] /home/devel-73/.android/build-cache/542188354804323e224af616642d37ea4afe2424/output/AndroidManifest.xml:35:11-33
	android:name
		ADDED from [com.google.android.gms:play-services-measurement:8.4.0] /home/devel-73/.android/build-cache/542188354804323e224af616642d37ea4afe2424/output/AndroidManifest.xml:34:11-83
intent-filter#com.google.android.gms.measurement.UPLOAD
ADDED from [com.google.android.gms:play-services-measurement:8.4.0] /home/devel-73/.android/build-cache/542188354804323e224af616642d37ea4afe2424/output/AndroidManifest.xml:36:9-38:25
action#com.google.android.gms.measurement.UPLOAD
ADDED from [com.google.android.gms:play-services-measurement:8.4.0] /home/devel-73/.android/build-cache/542188354804323e224af616642d37ea4afe2424/output/AndroidManifest.xml:37:11-77
	android:name
		ADDED from [com.google.android.gms:play-services-measurement:8.4.0] /home/devel-73/.android/build-cache/542188354804323e224af616642d37ea4afe2424/output/AndroidManifest.xml:37:19-75
service#com.google.android.gms.measurement.AppMeasurementService
ADDED from [com.google.android.gms:play-services-measurement:8.4.0] /home/devel-73/.android/build-cache/542188354804323e224af616642d37ea4afe2424/output/AndroidManifest.xml:41:7-44:37
	android:enabled
		ADDED from [com.google.android.gms:play-services-measurement:8.4.0] /home/devel-73/.android/build-cache/542188354804323e224af616642d37ea4afe2424/output/AndroidManifest.xml:43:11-33
	android:exported
		ADDED from [com.google.android.gms:play-services-measurement:8.4.0] /home/devel-73/.android/build-cache/542188354804323e224af616642d37ea4afe2424/output/AndroidManifest.xml:44:11-35
	android:name
		ADDED from [com.google.android.gms:play-services-measurement:8.4.0] /home/devel-73/.android/build-cache/542188354804323e224af616642d37ea4afe2424/output/AndroidManifest.xml:42:11-82
